Análisis en tiempo real para analítica de brotes con R: Todo en una sola página
…
Distribuciones de retrasos y datos de casos

Datos de casos

Para explorar las funciones de EpiNow2 utilizaremos los
datos del brote del inicio de la pandemia COVID-19 del Reino Unido. Los
datos están disponibles en el paquete R incidence2.

R

dplyr::as_tibble(incidence2::covidregionaldataUK)

SALIDA

# A tibble: 6,370 × 13
   date       region   region_code cases_new cases_total deaths_new deaths_total
   <date>     <chr>    <chr>           <dbl>       <dbl>      <dbl>        <dbl>
 1 2020-01-30 East Mi… E12000004          NA          NA         NA           NA
 2 2020-01-30 East of… E12000006          NA          NA         NA           NA
 3 2020-01-30 England  E92000001           2           2         NA           NA
 4 2020-01-30 London   E12000007          NA          NA         NA           NA
 5 2020-01-30 North E… E12000001          NA          NA         NA           NA
 6 2020-01-30 North W… E12000002          NA          NA         NA           NA
 7 2020-01-30 Norther… N92000002          NA          NA         NA           NA
 8 2020-01-30 Scotland S92000003          NA          NA         NA           NA
 9 2020-01-30 South E… E12000008          NA          NA         NA           NA
10 2020-01-30 South W… E12000009          NA          NA         NA           NA
# ℹ 6,360 more rows
# ℹ 6 more variables: recovered_new <dbl>, recovered_total <dbl>,
#   hosp_new <dbl>, hosp_total <dbl>, tested_new <dbl>, tested_total <dbl>
…
# filtrar las fechas en la variable date_range
regional_cases <- regional_cases %>%
  dplyr::filter(magrittr::is_in(x = date, table = date_range))

dplyr::as_tibble(regional_cases)

SALIDA

# A tibble: 1,170 × 3
   date       region           confirm
   <date>     <chr>              <dbl>
 1 2020-01-30 East Midlands          0
 2 2020-01-30 East of England        0
 3 2020-01-30 England                2
 4 2020-01-30 London                 0
 5 2020-01-30 North East             0
 6 2020-01-30 North West             0
 7 2020-01-30 Northern Ireland       0
 8 2020-01-30 Scotland               0
 9 2020-01-30 South East             0
10 2020-01-30 South West             0
# ℹ 1,160 more rows
…
R

# Cargamos la base de datos Ebola 1976, incluida en el paquete {cfr}
data("ebola1976")

# Asumiendo que solo tenemos datos para los primeros 30 días del brote
ebola1976 %>%
  slice_head(n = 30) %>%
  as_tibble()

SALIDA

# A tibble: 30 × 3
   date       cases deaths
   <date>     <int>  <int>
 1 1976-08-25     1      0
 2 1976-08-26     0      0
 3 1976-08-27     0      0
 4 1976-08-28     0      0
 5 1976-08-29     0      0
 6 1976-08-30     0      0
 7 1976-08-31     0      0
 8 1976-09-01     1      0
 9 1976-09-02     1      0
10 1976-09-03     1      0
# ℹ 20 more rows
…
R

# lee la base de datos
# por ejemplo, si la ruta al archivo es data/raw-data/ebola_cases.csv :
sarscov2_input <-
  readr::read_csv(here::here("data", "raw-data", "sarscov2_cases_deaths.csv"))

R

# Inspect data
sarscov2_input

SALIDA

# A tibble: 93 × 3
   date       cases_jpn deaths_jpn
   <date>         <dbl>      <dbl>
 1 2020-01-20         1          0
 2 2020-01-21         1          0
 3 2020-01-22         0          0
 4 2020-01-23         1          0
 5 2020-01-24         1          0
 6 2020-01-25         3          0
 7 2020-01-26         3          0
 8 2020-01-27         4          0
 9 2020-01-28         6          0
10 2020-01-29         7          0
# ℹ 83 more rows
…
R

# read data
# e.g.: if path to file is data/raw-data/ebola_cases.csv then:
sarscov2_input <-
  readr::read_csv(here::here("data", "raw-data", "sarscov2_cases_deaths.csv"))

R

# Inspect data
sarscov2_input

SALIDA

# A tibble: 93 × 3
   date       cases_jpn deaths_jpn
   <date>         <dbl>      <dbl>
 1 2020-01-20         1          0
 2 2020-01-21         1          0
 3 2020-01-22         0          0
 4 2020-01-23         1          0
 5 2020-01-24         1          0
 6 2020-01-25         3          0
 7 2020-01-26         3          0
 8 2020-01-27         4          0
 9 2020-01-28         6          0
10 2020-01-29         7          0
# ℹ 83 more rows
…
Desafíos

Los datos agregados difieren de los listados de casos individuales

Los datos de incidencia agregados difieren de
lista en los que cada observación contiene datos a
nivel individual.

R

outbreaks::ebola_sierraleone_2014 %>% as_tibble()

SALIDA

# A tibble: 11,903 × 8
      id   age sex   status    date_of_onset date_of_sample district chiefdom
   <int> <dbl> <fct> <fct>     <date>        <date>         <fct>    <fct>
 1     1    20 F     confirmed 2014-05-18    2014-05-23     Kailahun Kissi Teng
 2     2    42 F     confirmed 2014-05-20    2014-05-25     Kailahun Kissi Teng
 3     3    45 F     confirmed 2014-05-20    2014-05-25     Kailahun Kissi Tonge
 4     4    15 F     confirmed 2014-05-21    2014-05-26     Kailahun Kissi Teng
 5     5    19 F     confirmed 2014-05-21    2014-05-26     Kailahun Kissi Teng
 6     6    55 F     confirmed 2014-05-21    2014-05-26     Kailahun Kissi Teng
 7     7    50 F     confirmed 2014-05-21    2014-05-26     Kailahun Kissi Teng
 8     8     8 F     confirmed 2014-05-22    2014-05-27     Kailahun Kissi Teng
 9     9    54 F     confirmed 2014-05-22    2014-05-27     Kailahun Kissi Teng
10    10    57 F     confirmed 2014-05-22    2014-05-27     Kailahun Kissi Teng
# ℹ 11,893 more rows
…
# Lee el listado de casos
mers_korea_2015$linelist %>%
  as_tibble() %>%
  select(starts_with("dt_"))

SALIDA

# A tibble: 162 × 6
   dt_onset   dt_report  dt_start_exp dt_end_exp dt_diag    dt_death
   <date>     <date>     <date>       <date>     <date>     <date>
 1 2015-05-11 2015-05-19 2015-04-18   2015-05-04 2015-05-20 NA
 2 2015-05-18 2015-05-20 2015-05-15   2015-05-20 2015-05-20 NA
 3 2015-05-20 2015-05-20 2015-05-16   2015-05-16 2015-05-21 2015-06-04
 4 2015-05-25 2015-05-26 2015-05-16   2015-05-20 2015-05-26 NA
 5 2015-05-25 2015-05-27 2015-05-17   2015-05-17 2015-05-26 NA
 6 2015-05-24 2015-05-28 2015-05-15   2015-05-17 2015-05-28 2015-06-01
 7 2015-05-21 2015-05-28 2015-05-16   2015-05-17 2015-05-28 NA
 8 2015-05-26 2015-05-29 2015-05-15   2015-05-15 2015-05-29 NA
 9 NA         2015-05-29 2015-05-15   2015-05-17 2015-05-29 NA
10 2015-05-21 2015-05-29 2015-05-16   2015-05-16 2015-05-29 NA
# ℹ 152 more rows
…
