…
::::::::::::::::::::::::::::::::::::::::::::::::

## Distribuciones de retrasos y datos de casos

### Datos de casos

Para explorar las funciones de `EpiNow2` utilizaremos los datos del brote del inicio de la pandemia COVID-19 del Reino Unido. Los datos están disponibles en el paquete R `{incidence2}`.


``` r
dplyr::as_tibble(incidence2::covidregionaldataUK)
```

``` output
# A tibble: 6,370 × 13
   date       region   region_code cases_new cases_total deaths_new deaths_total
   <date>     <chr>    <chr>           <dbl>       <dbl>      <dbl>        <dbl>
 1 2020-01-30 East Mi… E12000004          NA          NA         NA           NA
 2 2020-01-30 East of… E12000006          NA          NA         NA           NA
 3 2020-01-30 England  E92000001           2           2         NA           NA
 4 2020-01-30 London   E12000007          NA          NA         NA           NA
 5 2020-01-30 North E… E12000001          NA          NA         NA           NA
 6 2020-01-30 North W… E12000002          NA          NA         NA           NA
 7 2020-01-30 Norther… N92000002          NA          NA         NA           NA
 8 2020-01-30 Scotland S92000003          NA          NA         NA           NA
 9 2020-01-30 South E… E12000008          NA          NA         NA           NA
10 2020-01-30 South W… E12000009          NA          NA         NA           NA
# ℹ 6,360 more rows
# ℹ 6 more variables: recovered_new <dbl>, recovered_total <dbl>,
#   hosp_new <dbl>, hosp_total <dbl>, tested_new <dbl>, tested_total <dbl>
```
…
# filtrar las fechas en la variable date_range
regional_cases <- regional_cases %>%
  dplyr::filter(magrittr::is_in(x = date, table = date_range))

dplyr::as_tibble(regional_cases)
```

``` output
# A tibble: 1,170 × 3
   date       region           confirm
   <date>     <chr>              <dbl>
 1 2020-01-30 East Midlands          0
 2 2020-01-30 East of England        0
 3 2020-01-30 England                2
 4 2020-01-30 London                 0
 5 2020-01-30 North East             0
 6 2020-01-30 North West             0
 7 2020-01-30 Northern Ireland       0
 8 2020-01-30 Scotland               0
 9 2020-01-30 South East             0
10 2020-01-30 South West             0
# ℹ 1,160 more rows
```
…
